<?xml version="1.0" encoding="UTF-8" standalone="no"?>
<!-- Created with Inkscape (http://www.inkscape.org/) -->

<svg
   xmlns:dc="http://purl.org/dc/elements/1.1/"
   xmlns:cc="http://creativecommons.org/ns#"
   xmlns:rdf="http://www.w3.org/1999/02/22-rdf-syntax-ns#"
   xmlns:svg="http://www.w3.org/2000/svg"
   xmlns="http://www.w3.org/2000/svg"
   xmlns:xlink="http://www.w3.org/1999/xlink"
   xmlns:sodipodi="http://sodipodi.sourceforge.net/DTD/sodipodi-0.dtd"
   xmlns:inkscape="http://www.inkscape.org/namespaces/inkscape"
   width="744.09448819"
   height="1052.3622047"
   id="svg2"
   version="1.1"
   inkscape:version="0.91 r13725"
   sodipodi:docname="end.svg"
   inkscape:export-filename="/home/konstantin/0-work/students/toma-deadline/7 titri/end.png"
   inkscape:export-xdpi="280"
   inkscape:export-ydpi="280">
  <defs
     id="defs4" />
  <sodipodi:namedview
     id="base"
     pagecolor="#ffffff"
     bordercolor="#666666"
     borderopacity="1.0"
     inkscape:pageopacity="0.0"
     inkscape:pageshadow="2"
     inkscape:zoom="0.9899495"
     inkscape:cx="279.23593"
     inkscape:cy="505.5099"
     inkscape:document-units="px"
     inkscape:current-layer="layer1"
     showgrid="false"
     inkscape:window-width="1217"
     inkscape:window-height="995"
     inkscape:window-x="0"
     inkscape:window-y="0"
     inkscape:window-maximized="1"
     showguides="true"
     inkscape:guide-bbox="true">
    <sodipodi:guide
       position="212.13203,177.78685"
       orientation="0,1"
       id="guide4243" />
  </sodipodi:namedview>
  <metadata
     id="metadata7">
    <rdf:RDF>
      <cc:Work
         rdf:about="">
        <dc:format>image/svg+xml</dc:format>
        <dc:type
           rdf:resource="http://purl.org/dc/dcmitype/StillImage" />
        <dc:title />
      </cc:Work>
    </rdf:RDF>
  </metadata>
  <g
     inkscape:label="Layer 1"
     inkscape:groupmode="layer"
     id="layer1">
    <rect
       style="fill:#000000"
       id="rect3958"
       width="406.96893"
       height="1139.3816"
       x="61.741856"
       y="27.05735"
       inkscape:export-filename="/home/anim/students/toma-deadline/7 titri/flowRoot2985.png"
       inkscape:export-xdpi="280"
       inkscape:export-ydpi="280" />
    <flowRoot
       xml:space="preserve"
       id="flowRoot3804"
       style="font-size:40px;font-style:normal;font-weight:normal;line-height:125%;letter-spacing:0px;word-spacing:0px;fill:#000000;fill-opacity:1;stroke:none;font-family:Sans"><flowRegion
         id="flowRegion3806"><rect
           id="rect3808"
           width="495.98489"
           height="643.46716"
           x="150.51273"
           y="60.392384" /></flowRegion><flowPara
         id="flowPara3810" /></flowRoot>    <flowRoot
       xml:space="preserve"
       id="flowRoot3812"
       style="fill:black;stroke:none;stroke-opacity:1;stroke-width:1px;stroke-linejoin:miter;stroke-linecap:butt;fill-opacity:1;font-family:Sans;font-style:normal;font-weight:normal;font-size:40px;line-height:125%;letter-spacing:0px;word-spacing:0px"><flowRegion
         id="flowRegion3814"><rect
           id="rect3816"
           width="260.61935"
           height="115.15739"
           x="159.6041"
           y="82.615738" /></flowRegion><flowPara
         id="flowPara3818" /></flowRoot>    <flowRoot
       xml:space="preserve"
       id="flowRoot2996"
       style="fill:black;stroke:none;stroke-opacity:1;stroke-width:1px;stroke-linejoin:miter;stroke-linecap:butt;fill-opacity:1;font-family:Sans;font-style:normal;font-weight:normal;font-size:40px;line-height:125%;letter-spacing:0px;word-spacing:0px"><flowRegion
         id="flowRegion2998"><rect
           id="rect3000"
           width="316.42856"
           height="110.71429"
           x="100"
           y="53.076466" /></flowRegion><flowPara
         id="flowPara3002" /></flowRoot>    <flowRoot
       xml:space="preserve"
       id="flowRoot3004"
       style="font-style:normal;font-weight:normal;font-size:40px;line-height:125%;font-family:Sans;letter-spacing:0px;word-spacing:0px;fill:#000000;fill-opacity:1;stroke:none"
       inkscape:export-filename="/home/anim/students/toma-deadline/7 titri/end.png"
       inkscape:export-xdpi="280"
       inkscape:export-ydpi="280"
       transform="translate(4.5515785,-22.020305)"><flowRegion
         id="flowRegion3006"><rect
           id="rect3008"
           width="364.28577"
           height="930.71429"
           x="77.85714"
           y="56.647892" /></flowRegion><flowPara
         id="flowPara3024"
         style="font-size:13.75px;text-align:center;text-anchor:middle;fill:#ffffff">Автор оригинального комикса:</flowPara><flowPara
         style="font-weight:bold;font-size:13.75px;-inkscape-font-specification:'Sans Bold';text-align:center;text-anchor:middle;fill:#ffffff"
         id="flowPara3121">Илья Горюч</flowPara><flowPara
         style="font-weight:bold;font-size:13.75px;-inkscape-font-specification:'Sans Bold';text-align:center;text-anchor:middle;fill:#ffffff"
         id="flowPara3123">(https://vk.com/duckanduniverse)</flowPara><flowPara
         style="font-weight:bold;font-size:13.75px;-inkscape-font-specification:'Sans Bold';text-align:center;text-anchor:middle;fill:#ffffff"
         id="flowPara3125" /><flowPara
         style="font-size:13.75px;text-align:center;text-anchor:middle;fill:#ffffff"
         id="flowPara3127">Анимация:</flowPara><flowPara
         style="font-weight:bold;font-size:13.75px;-inkscape-font-specification:'Sans Bold';text-align:center;text-anchor:middle;fill:#ffffff"
         id="flowPara3129">Тамара Худякова</flowPara><flowPara
         style="font-size:13.75px;text-align:center;text-anchor:middle;fill:#ffffff"
         id="flowPara3131" /><flowPara
         style="font-size:13.75px;text-align:center;text-anchor:middle;fill:#ffffff"
         id="flowPara3133">Роли озвучивал:</flowPara><flowPara
         style="font-weight:bold;font-size:13.75px;-inkscape-font-specification:'Sans Bold';text-align:center;text-anchor:middle;fill:#ffffff"
         id="flowPara3135">Стас Холодилин</flowPara><flowPara
         style="font-size:13.75px;text-align:center;text-anchor:middle;fill:#ffffff"
         id="flowPara3143" /><flowPara
         style="font-size:13.75px;text-align:center;text-anchor:middle;fill:#ffffff"
         id="flowPara3145">Музыка:</flowPara><flowPara
         style="font-weight:bold;font-size:12.5px;-inkscape-font-specification:'Sans Bold';text-align:center;text-anchor:middle;fill:#ffffff"
         id="flowPara3147">Mattias Westlund - Over the Northern Mountains</flowPara><flowPara
         style="font-weight:bold;font-size:12.5px;-inkscape-font-specification:'Sans Bold';text-align:center;text-anchor:middle;fill:#ffffff"
         id="flowPara3149">Mattias Westlund - Departures</flowPara><flowPara
         style="font-size:13.75px;text-align:center;text-anchor:middle;fill:#ffffff"
         id="flowPara3151" /><flowPara
         style="font-size:13.75px;text-align:center;text-anchor:middle;fill:#ffffff"
         id="flowPara3153">В мультфильме использованы звуковые эффекты с сайта FreeSound.org:</flowPara><flowPara
         style="font-weight:bold;font-size:11.25px;-inkscape-font-specification:'Sans Bold';text-align:center;text-anchor:middle;fill:#ffffff"
         id="flowPara4349">&quot;Female scream 1.mp3&quot; by mariallinas</flowPara><flowPara
         style="font-weight:bold;font-size:11.25px;-inkscape-font-specification:'Sans Bold';text-align:center;text-anchor:middle;fill:#ffffff"
         id="flowPara4350">&quot;MAN SCREAM&quot; by queen_westeros</flowPara><flowPara
         style="font-weight:bold;font-size:11.25px;-inkscape-font-specification:'Sans Bold';text-align:center;text-anchor:middle;fill:#ffffff"
         id="flowPara4352">&quot;Whoosh_2.wav&quot; by speedygonzo</flowPara><flowPara
         style="font-weight:bold;font-size:11.25px;-inkscape-font-specification:'Sans Bold';text-align:center;text-anchor:middle;fill:#ffffff"
         id="flowPara4354">&quot;LargeWoodenShip.mp3&quot; by PimFeijen</flowPara><flowPara
         style="font-weight:bold;font-size:11.25px;-inkscape-font-specification:'Sans Bold';text-align:center;text-anchor:middle;fill:#ffffff"
         id="flowPara4356">&quot;cartoon_siren_whistle_001.wav&quot; by soundscalpel.com</flowPara><flowPara
         style="font-weight:bold;font-size:11.25px;-inkscape-font-specification:'Sans Bold';text-align:center;text-anchor:middle;fill:#ffffff"
         id="flowPara4358">&quot;Male_Scream_2.wav&quot; by AlineAudio</flowPara><flowPara
         style="font-weight:bold;font-size:11.25px;-inkscape-font-specification:'Sans Bold';text-align:center;text-anchor:middle;fill:#ffffff"
         id="flowPara4360">&quot;Wind.wav&quot; by Cyril Laurier</flowPara><flowPara
         style="font-weight:bold;font-size:11.25px;-inkscape-font-specification:'Sans Bold';text-align:center;text-anchor:middle;fill:#ffffff"
         id="flowPara4362">&quot;Impact-LeatherBelt-001.wav&quot; by D W</flowPara><flowPara
         style="font-weight:bold;font-size:11.25px;-inkscape-font-specification:'Sans Bold';text-align:center;text-anchor:middle;fill:#ffffff"
         id="flowPara4364">&quot;\xc3\x9eingvellir waterfall hard 1.wav&quot; by dikolson</flowPara><flowPara
         style="font-weight:bold;font-size:11.25px;-inkscape-font-specification:'Sans Bold';text-align:center;text-anchor:middle;fill:#ffffff"
         id="flowPara4366">&quot;box_impact_02.wav&quot; by devlab</flowPara><flowPara
         style="font-weight:bold;font-size:11.25px;-inkscape-font-specification:'Sans Bold';text-align:center;text-anchor:middle;fill:#ffffff"
         id="flowPara4368">&quot;Whoosh.wav&quot; by Adam_N</flowPara><flowPara
         style="font-weight:bold;font-size:11.25px;-inkscape-font-specification:'Sans Bold';text-align:center;text-anchor:middle;fill:#ffffff"
         id="flowPara4370">&quot;Arrow Impact&quot; by Twisted_Euphoria</flowPara><flowPara
         style="font-weight:bold;font-size:11.25px;-inkscape-font-specification:'Sans Bold';text-align:center;text-anchor:middle;fill:#ffffff"
         id="flowPara4372">&quot;Big waves hit land.wav&quot; by straget</flowPara><flowPara
         style="font-size:13.75px;text-align:center;text-anchor:middle;fill:#ffffff"
         id="flowPara3169" /><flowPara
         style="font-size:13.75px;text-align:center;text-anchor:middle;fill:#ffffff"
         id="flowPara3171">Режиссёр:</flowPara><flowPara
         style="font-weight:bold;font-size:13.75px;-inkscape-font-specification:'Sans Bold';text-align:center;text-anchor:middle;fill:#ffffff"
         id="flowPara3209">Константин Дмитриев</flowPara><flowPara
         style="font-weight:bold;font-size:13.75px;-inkscape-font-specification:'Sans Bold';text-align:center;text-anchor:middle;fill:#ffffff"
         id="flowPara3205" /><flowPara
         style="font-size:13.75px;text-align:center;text-anchor:middle;fill:#ffffff"
         id="flowPara3211">Сделано с использованием</flowPara><flowPara
         style="font-size:13.75px;text-align:center;text-anchor:middle;fill:#ffffff"
         id="flowPara3201">свободных программ:</flowPara><flowPara
         style="font-size:13.75px;text-align:center;text-anchor:middle;fill:#ffffff"
         id="flowPara3173" /><flowPara
         style="font-size:13.75px;text-align:center;text-anchor:middle;fill:#ffffff"
         id="flowPara3175" /><flowPara
         style="font-size:13.75px;text-align:center;text-anchor:middle;fill:#ffffff"
         id="flowPara3177" /><flowPara
         style="font-size:13.75px;text-align:center;text-anchor:middle;fill:#ffffff"
         id="flowPara4219" /><flowPara
         style="font-size:13.75px;text-align:center;text-anchor:middle;fill:#ffffff"
         id="flowPara4221" /><flowPara
         style="font-size:13.75px;text-align:center;text-anchor:middle;fill:#ffffff"
         id="flowPara4322" /><flowPara
         style="font-size:13.75px;text-align:center;text-anchor:middle;fill:#ffffff"
         id="flowPara4324" /><flowPara
         style="font-size:13.75px;text-align:center;text-anchor:middle;fill:#ffffff"
         id="flowPara4326" /><flowPara
         style="font-size:13.75px;text-align:center;text-anchor:middle;fill:#ffffff"
         id="flowPara4330">Распространяется на условиях лицензии</flowPara><flowPara
         style="font-style:normal;font-variant:normal;font-weight:bold;font-stretch:normal;font-size:13.75px;font-family:Sans;-inkscape-font-specification:'Sans Bold';text-align:center;text-anchor:middle;fill:#ffffff"
         id="flowPara4223">Creative Commons Attribution 4.0</flowPara><flowPara
         style="font-size:13.75px;text-align:center;text-anchor:middle;fill:#ffffff"
         id="flowPara3195" /><flowPara
         style="font-size:13.75px;text-align:center;text-anchor:middle;fill:#ffffff"
         id="flowPara3199" /><flowPara
         style="font-size:13.75px;text-align:center;text-anchor:middle;fill:#ffffff"
         id="flowPara3179" /><flowPara
         style="font-size:13.75px;text-align:center;text-anchor:middle;fill:#ffffff"
         id="flowPara3183" /><flowPara
         style="font-size:13.75px;text-align:center;text-anchor:middle;fill:#ffffff"
         id="flowPara3185" /><flowPara
         style="font-size:13.75px;text-align:center;text-anchor:middle;fill:#ffffff"
         id="flowPara4336">Горно-Алтайск, 2018</flowPara><flowPara
         id="flowPara3026"
         style="font-size:13.75px;fill:#ffffff" /><flowPara
         id="flowPara3028"
         style="font-size:13.75px;fill:#ffffff" /><flowPara
         id="flowPara3030"
         style="font-size:13.75px;fill:#ffffff" /><flowPara
         id="flowPara3032"
         style="font-size:13.75px;fill:#ffffff" /><flowPara
         id="flowPara3034"
         style="font-size:13.75px;fill:#ffffff" /><flowPara
         id="flowPara3036"
         style="font-size:13.75px;fill:#ffffff" /><flowPara
         id="flowPara3038"
         style="font-size:13.75px;fill:#ffffff" /><flowPara
         id="flowPara3040"
         style="font-size:13.75px;fill:#ffffff" /><flowPara
         id="flowPara3042"
         style="font-size:13.75px;fill:#ffffff" /><flowPara
         id="flowPara3044"
         style="font-size:13.75px;fill:#ffffff" /><flowPara
         id="flowPara3046"
         style="font-size:13.75px;fill:#ffffff" /><flowPara
         id="flowPara3048"
         style="font-size:13.75px;fill:#ffffff" /><flowPara
         id="flowPara3050"
         style="font-size:13.75px;fill:#ffffff" /><flowPara
         id="flowPara3052"
         style="font-size:13.75px;fill:#ffffff" /><flowPara
         id="flowPara3054"
         style="font-size:13.75px;fill:#ffffff" /><flowPara
         id="flowPara3056"
         style="font-size:13.75px;fill:#ffffff" /><flowPara
         id="flowPara3058"
         style="font-size:13.75px;fill:#ffffff" /><flowPara
         id="flowPara3060"
         style="font-size:13.75px;fill:#ffffff" /><flowPara
         id="flowPara3062"
         style="font-size:13.75px;fill:#ffffff" /><flowPara
         id="flowPara3064"
         style="font-size:13.75px;fill:#ffffff" /><flowPara
         id="flowPara3066"
         style="font-size:13.75px;fill:#ffffff" /><flowPara
         id="flowPara3068"
         style="font-size:13.75px;fill:#ffffff" /><flowPara
         id="flowPara3070"
         style="font-size:13.75px;fill:#ffffff" /><flowPara
         id="flowPara3072"
         style="font-size:13.75px;fill:#ffffff" /><flowPara
         id="flowPara3074"
         style="font-size:13.75px;fill:#ffffff" /><flowPara
         id="flowPara3076"
         style="font-size:13.75px;fill:#ffffff" /></flowRoot>    <g
       id="g4305"
       transform="matrix(0.79900434,0,0,0.79900434,59.148143,-47.638686)">
      <g
         id="g4287">
        <image
           sodipodi:absref="/home/konstantin/0-work/students/toma-deadline/7 titri/icons/logo-synfig.png"
           xlink:href="icons/logo-synfig.png"
           width="73.908768"
           height="73.908768"
           preserveAspectRatio="none"
           style="image-rendering:optimizeQuality"
           id="image4252"
           x="116.42644"
           y="812.20477" />
        <text
           xml:space="preserve"
           style="font-style:normal;font-weight:normal;font-size:40px;line-height:125%;font-family:sans-serif;letter-spacing:0px;word-spacing:0px;fill:#000000;fill-opacity:1;stroke:none;stroke-width:1px;stroke-linecap:butt;stroke-linejoin:miter;stroke-opacity:1"
           x="153.20381"
           y="904.98242"
           id="text4265"
           sodipodi:linespacing="125%"><tspan
             sodipodi:role="line"
             id="tspan4267"
             x="153.20381"
             y="904.98242"
             style="font-style:normal;font-variant:normal;font-weight:bold;font-stretch:normal;font-size:12.5px;font-family:sans-serif;-inkscape-font-specification:'sans-serif Bold';text-align:center;text-anchor:middle;fill:#ffffff">Synfig Studio</tspan><tspan
             sodipodi:role="line"
             x="153.20381"
             y="920.60742"
             style="font-size:12.5px;text-align:center;text-anchor:middle;fill:#ffffff"
             id="tspan4269">(анимация)</tspan></text>
      </g>
      <g
         transform="translate(101.5224,0)"
         id="g4293">
        <image
           sodipodi:absref="/home/konstantin/0-work/students/toma-deadline/7 titri/icons/logo-renderchan.png"
           xlink:href="icons/logo-renderchan.png"
           width="73.908768"
           height="73.908768"
           preserveAspectRatio="none"
           style="image-rendering:optimizeQuality"
           id="image4241"
           x="229.49742"
           y="812.20477" />
        <text
           xml:space="preserve"
           style="font-style:normal;font-weight:normal;font-size:40px;line-height:125%;font-family:sans-serif;letter-spacing:0px;word-spacing:0px;fill:#000000;fill-opacity:1;stroke:none;stroke-width:1px;stroke-linecap:butt;stroke-linejoin:miter;stroke-opacity:1"
           x="265.37759"
           y="904.54602"
           id="text4271"
           sodipodi:linespacing="125%"><tspan
             sodipodi:role="line"
             x="265.37759"
             y="904.54602"
             style="font-style:normal;font-variant:normal;font-weight:bold;font-stretch:normal;font-size:12.5px;font-family:sans-serif;-inkscape-font-specification:'sans-serif Bold';text-align:center;text-anchor:middle;fill:#ffffff"
             id="tspan4275">RenderChan</tspan><tspan
             sodipodi:role="line"
             x="265.37759"
             y="920.17102"
             style="font-size:12.5px;text-align:center;text-anchor:middle;fill:#ffffff"
             id="tspan4279">(рендеринг)</tspan></text>
      </g>
      <g
         transform="translate(-84.606354,0)"
         id="g4299">
        <image
           sodipodi:absref="/home/konstantin/0-work/students/toma-deadline/7 titri/icons/logo-blender.png"
           xlink:href="icons/logo-blender.png"
           width="73.908768"
           height="73.908768"
           preserveAspectRatio="none"
           style="image-rendering:optimizeQuality"
           id="image4230"
           x="310.09338"
           y="812.20477" />
        <text
           xml:space="preserve"
           style="font-style:normal;font-weight:normal;font-size:40px;line-height:125%;font-family:sans-serif;letter-spacing:0px;word-spacing:0px;fill:#000000;fill-opacity:1;stroke:none;stroke-width:1px;stroke-linecap:butt;stroke-linejoin:miter;stroke-opacity:1"
           x="347.05081"
           y="905.02209"
           id="text4281"
           sodipodi:linespacing="125%"><tspan
             sodipodi:role="line"
             id="tspan4283"
             x="347.05081"
             y="905.02209"
             style="font-style:normal;font-variant:normal;font-weight:bold;font-stretch:normal;font-size:12.5px;font-family:sans-serif;-inkscape-font-specification:'sans-serif Bold';text-align:center;text-anchor:middle;fill:#ffffff">Blender</tspan><tspan
             sodipodi:role="line"
             x="347.05081"
             y="920.64709"
             style="font-size:12.5px;text-align:center;text-anchor:middle;fill:#ffffff"
             id="tspan4285">(монтаж)</tspan></text>
      </g>
    </g>
    <g
       id="g4351"
       transform="matrix(0.5021589,0,0,0.5021589,-48.765801,387.18085)">
      <rect
         y="781.05994"
         x="524.27271"
         height="70.689964"
         width="202.02338"
         id="rect4349"
         style="fill:#800000;fill-opacity:0.56147539;stroke:#ffffff;stroke-width:6;stroke-miterlimit:4;stroke-dasharray:none;stroke-opacity:1" />
      <image
         sodipodi:absref="/home/konstantin/0-work/students/toma-deadline/7 titri/icons/creative-commons-by.png"
         xlink:href="icons/creative-commons-by.png"
         y="773.3761"
         x="524.27271"
         id="image4346"
         style="image-rendering:optimizeQuality"
         preserveAspectRatio="none"
         height="85.220779"
         width="202.02338" />
    </g>
  </g>
</svg>
